{
    "request": {
        "method": "GET",
        "url": "/content/id2"
    },
    "response": {
        "status": 200,
        "body": "id2-content",
        "headers": {
            "Content-Type": "text/plain"
        }
    }
}
